Quartus/DE0_Demo/simulation/qsim/DE0_top.msim.vcd
$comment
	File created using the following command:
		vcd file DE0_top.msim.vcd -direction
$end
$date
	Wed Sep 28 17:58:56 2022
$end
$version
	ModelSim Version 10.5b
$end
$timescale
	1ps
$end

$scope module encryptor_vhd_vec_tst $end
$var wire 1 ! accel_select_o $end
$var wire 1 " addr_in [31] $end
$var wire 1 # addr_in [30] $end
$var wire 1 $ addr_in [29] $end
$var wire 1 % addr_in [28] $end
$var wire 1 & addr_in [27] $end
$var wire 1 ' addr_in [26] $end
$var wire 1 ( addr_in [25] $end
$var wire 1 ) addr_in [24] $end
$var wire 1 * addr_in [23] $end
$var wire 1 + addr_in [22] $end
$var wire 1 , addr_in [21] $end
$var wire 1 - addr_in [20] $end
$var wire 1 . addr_in [19] $end
$var wire 1 / addr_in [18] $end
$var wire 1 0 addr_in [17] $end
$var wire 1 1 addr_in [16] $end
$var wire 1 2 addr_in [15] $end
$var wire 1 3 addr_in [14] $end
$var wire 1 4 addr_in [13] $end
$var wire 1 5 addr_in [12] $end
$var wire 1 6 addr_in [11] $end
$var wire 1 7 addr_in [10] $end
$var wire 1 8 addr_in [9] $end
$var wire 1 9 addr_in [8] $end
$var wire 1 : addr_in [7] $end
$var wire 1 ; addr_in [6] $end
$var wire 1 < addr_in [5] $end
$var wire 1 = addr_in [4] $end
$var wire 1 > addr_in [3] $end
$var wire 1 ? addr_in [2] $end
$var wire 1 @ addr_in [1] $end
$var wire 1 A addr_in [0] $end
$var wire 1 B addr_o [31] $end
$var wire 1 C addr_o [30] $end
$var wire 1 D addr_o [29] $end
$var wire 1 E addr_o [28] $end
$var wire 1 F addr_o [27] $end
$var wire 1 G addr_o [26] $end
$var wire 1 H addr_o [25] $end
$var wire 1 I addr_o [24] $end
$var wire 1 J addr_o [23] $end
$var wire 1 K addr_o [22] $end
$var wire 1 L addr_o [21] $end
$var wire 1 M addr_o [20] $end
$var wire 1 N addr_o [19] $end
$var wire 1 O addr_o [18] $end
$var wire 1 P addr_o [17] $end
$var wire 1 Q addr_o [16] $end
$var wire 1 R addr_o [15] $end
$var wire 1 S addr_o [14] $end
$var wire 1 T addr_o [13] $end
$var wire 1 U addr_o [12] $end
$var wire 1 V addr_o [11] $end
$var wire 1 W addr_o [10] $end
$var wire 1 X addr_o [9] $end
$var wire 1 Y addr_o [8] $end
$var wire 1 Z addr_o [7] $end
$var wire 1 [ addr_o [6] $end
$var wire 1 \ addr_o [5] $end
$var wire 1 ] addr_o [4] $end
$var wire 1 ^ addr_o [3] $end
$var wire 1 _ addr_o [2] $end
$var wire 1 ` addr_o [1] $end
$var wire 1 a addr_o [0] $end
$var wire 1 b clk $end
$var wire 1 c data_accel_in [31] $end
$var wire 1 d data_accel_in [30] $end
$var wire 1 e data_accel_in [29] $end
$var wire 1 f data_accel_in [28] $end
$var wire 1 g data_accel_in [27] $end
$var wire 1 h data_accel_in [26] $end
$var wire 1 i data_accel_in [25] $end
$var wire 1 j data_accel_in [24] $end
$var wire 1 k data_accel_in [23] $end
$var wire 1 l data_accel_in [22] $end
$var wire 1 m data_accel_in [21] $end
$var wire 1 n data_accel_in [20] $end
$var wire 1 o data_accel_in [19] $end
$var wire 1 p data_accel_in [18] $end
$var wire 1 q data_accel_in [17] $end
$var wire 1 r data_accel_in [16] $end
$var wire 1 s data_accel_in [15] $end
$var wire 1 t data_accel_in [14] $end
$var wire 1 u data_accel_in [13] $end
$var wire 1 v data_accel_in [12] $end
$var wire 1 w data_accel_in [11] $end
$var wire 1 x data_accel_in [10] $end
$var wire 1 y data_accel_in [9] $end
$var wire 1 z data_accel_in [8] $end
$var wire 1 { data_accel_in [7] $end
$var wire 1 | data_accel_in [6] $end
$var wire 1 } data_accel_in [5] $end
$var wire 1 ~ data_accel_in [4] $end
$var wire 1 !! data_accel_in [3] $end
$var wire 1 "! data_accel_in [2] $end
$var wire 1 #! data_accel_in [1] $end
$var wire 1 $! data_accel_in [0] $end
$var wire 1 %! data_in [31] $end
$var wire 1 &! data_in [30] $end
$var wire 1 '! data_in [29] $end
$var wire 1 (! data_in [28] $end
$var wire 1 )! data_in [27] $end
$var wire 1 *! data_in [26] $end
$var wire 1 +! data_in [25] $end
$var wire 1 ,! data_in [24] $end
$var wire 1 -! data_in [23] $end
$var wire 1 .! data_in [22] $end
$var wire 1 /! data_in [21] $end
$var wire 1 0! data_in [20] $end
$var wire 1 1! data_in [19] $end
$var wire 1 2! data_in [18] $end
$var wire 1 3! data_in [17] $end
$var wire 1 4! data_in [16] $end
$var wire 1 5! data_in [15] $end
$var wire 1 6! data_in [14] $end
$var wire 1 7! data_in [13] $end
$var wire 1 8! data_in [12] $end
$var wire 1 9! data_in [11] $end
$var wire 1 :! data_in [10] $end
$var wire 1 ;! data_in [9] $end
$var wire 1 <! data_in [8] $end
$var wire 1 =! data_in [7] $end
$var wire 1 >! data_in [6] $end
$var wire 1 ?! data_in [5] $end
$var wire 1 @! data_in [4] $end
$var wire 1 A! data_in [3] $end
$var wire 1 B! data_in [2] $end
$var wire 1 C! data_in [1] $end
$var wire 1 D! data_in [0] $end
$var wire 1 E! data_out [31] $end
$var wire 1 F! data_out [30] $end
$var wire 1 G! data_out [29] $end
$var wire 1 H! data_out [28] $end
$var wire 1 I! data_out [27] $end
$var wire 1 J! data_out [26] $end
$var wire 1 K! data_out [25] $end
$var wire 1 L! data_out [24] $end
$var wire 1 M! data_out [23] $end
$var wire 1 N! data_out [22] $end
$var wire 1 O! data_out [21] $end
$var wire 1 P! data_out [20] $end
$var wire 1 Q! data_out [19] $end
$var wire 1 R! data_out [18] $end
$var wire 1 S! data_out [17] $end
$var wire 1 T! data_out [16] $end
$var wire 1 U! data_out [15] $end
$var wire 1 V! data_out [14] $end
$var wire 1 W! data_out [13] $end
$var wire 1 X! data_out [12] $end
$var wire 1 Y! data_out [11] $end
$var wire 1 Z! data_out [10] $end
$var wire 1 [! data_out [9] $end
$var wire 1 \! data_out [8] $end
$var wire 1 ]! data_out [7] $end
$var wire 1 ^! data_out [6] $end
$var wire 1 _! data_out [5] $end
$var wire 1 `! data_out [4] $end
$var wire 1 a! data_out [3] $end
$var wire 1 b! data_out [2] $end
$var wire 1 c! data_out [1] $end
$var wire 1 d! data_out [0] $end
$var wire 1 e! rst_n $end
$var wire 1 f! select_in $end
$var wire 1 g! wr_en_in $end
$var wire 1 h! wr_en_o $end

$scope module i1 $end
$var wire 1 i! gnd $end
$var wire 1 j! vcc $end
$var wire 1 k! unknown $end
$var wire 1 l! devoe $end
$var wire 1 m! devclrn $end
$var wire 1 n! devpor $end
$var wire 1 o! ww_devoe $end
$var wire 1 p! ww_devclrn $end
$var wire 1 q! ww_devpor $end
$var wire 1 r! ww_rst_n $end
$var wire 1 s! ww_clk $end
$var wire 1 t! ww_addr_in [31] $end
$var wire 1 u! ww_addr_in [30] $end
$var wire 1 v! ww_addr_in [29] $end
$var wire 1 w! ww_addr_in [28] $end
$var wire 1 x! ww_addr_in [27] $end
$var wire 1 y! ww_addr_in [26] $end
$var wire 1 z! ww_addr_in [25] $end
$var wire 1 {! ww_addr_in [24] $end
$var wire 1 |! ww_addr_in [23] $end
$var wire 1 }! ww_addr_in [22] $end
$var wire 1 ~! ww_addr_in [21] $end
$var wire 1 !" ww_addr_in [20] $end
$var wire 1 "" ww_addr_in [19] $end
$var wire 1 #" ww_addr_in [18] $end
$var wire 1 $" ww_addr_in [17] $end
$var wire 1 %" ww_addr_in [16] $end
$var wire 1 &" ww_addr_in [15] $end
$var wire 1 '" ww_addr_in [14] $end
$var wire 1 (" ww_addr_in [13] $end
$var wire 1 )" ww_addr_in [12] $end
$var wire 1 *" ww_addr_in [11] $end
$var wire 1 +" ww_addr_in [10] $end
$var wire 1 ," ww_addr_in [9] $end
$var wire 1 -" ww_addr_in [8] $end
$var wire 1 ." ww_addr_in [7] $end
$var wire 1 /" ww_addr_in [6] $end
$var wire 1 0" ww_addr_in [5] $end
$var wire 1 1" ww_addr_in [4] $end
$var wire 1 2" ww_addr_in [3] $end
$var wire 1 3" ww_addr_in [2] $end
$var wire 1 4" ww_addr_in [1] $end
$var wire 1 5" ww_addr_in [0] $end
$var wire 1 6" ww_wr_en_in $end
$var wire 1 7" ww_select_in $end
$var wire 1 8" ww_data_in [31] $end
$var wire 1 9" ww_data_in [30] $end
$var wire 1 :" ww_data_in [29] $end
$var wire 1 ;" ww_data_in [28] $end
$var wire 1 <" ww_data_in [27] $end
$var wire 1 =" ww_data_in [26] $end
$var wire 1 >" ww_data_in [25] $end
$var wire 1 ?" ww_data_in [24] $end
$var wire 1 @" ww_data_in [23] $end
$var wire 1 A" ww_data_in [22] $end
$var wire 1 B" ww_data_in [21] $end
$var wire 1 C" ww_data_in [20] $end
$var wire 1 D" ww_data_in [19] $end
$var wire 1 E" ww_data_in [18] $end
$var wire 1 F" ww_data_in [17] $end
$var wire 1 G" ww_data_in [16] $end
$var wire 1 H" ww_data_in [15] $end
$var wire 1 I" ww_data_in [14] $end
$var wire 1 J" ww_data_in [13] $end
$var wire 1 K" ww_data_in [12] $end
$var wire 1 L" ww_data_in [11] $end
$var wire 1 M" ww_data_in [10] $end
$var wire 1 N" ww_data_in [9] $end
$var wire 1 O" ww_data_in [8] $end
$var wire 1 P" ww_data_in [7] $end
$var wire 1 Q" ww_data_in [6] $end
$var wire 1 R" ww_data_in [5] $end
$var wire 1 S" ww_data_in [4] $end
$var wire 1 T" ww_data_in [3] $end
$var wire 1 U" ww_data_in [2] $end
$var wire 1 V" ww_data_in [1] $end
$var wire 1 W" ww_data_in [0] $end
$var wire 1 X" ww_data_accel_in [31] $end
$var wire 1 Y" ww_data_accel_in [30] $end
$var wire 1 Z" ww_data_accel_in [29] $end
$var wire 1 [" ww_data_accel_in [28] $end
$var wire 1 \" ww_data_accel_in [27] $end
$var wire 1 ]" ww_data_accel_in [26] $end
$var wire 1 ^" ww_data_accel_in [25] $end
$var wire 1 _" ww_data_accel_in [24] $end
$var wire 1 `" ww_data_accel_in [23] $end
$var wire 1 a" ww_data_accel_in [22] $end
$var wire 1 b" ww_data_accel_in [21] $end
$var wire 1 c" ww_data_accel_in [20] $end
$var wire 1 d" ww_data_accel_in [19] $end
$var wire 1 e" ww_data_accel_in [18] $end
$var wire 1 f" ww_data_accel_in [17] $end
$var wire 1 g" ww_data_accel_in [16] $end
$var wire 1 h" ww_data_accel_in [15] $end
$var wire 1 i" ww_data_accel_in [14] $end
$var wire 1 j" ww_data_accel_in [13] $end
$var wire 1 k" ww_data_accel_in [12] $end
$var wire 1 l" ww_data_accel_in [11] $end
$var wire 1 m" ww_data_accel_in [10] $end
$var wire 1 n" ww_data_accel_in [9] $end
$var wire 1 o" ww_data_accel_in [8] $end
$var wire 1 p" ww_data_accel_in [7] $end
$var wire 1 q" ww_data_accel_in [6] $end
$var wire 1 r" ww_data_accel_in [5] $end
$var wire 1 s" ww_data_accel_in [4] $end
$var wire 1 t" ww_data_accel_in [3] $end
$var wire 1 u" ww_data_accel_in [2] $end
$var wire 1 v" ww_data_accel_in [1] $end
$var wire 1 w" ww_data_accel_in [0] $end
$var wire 1 x" ww_addr_o [31] $end
$var wire 1 y" ww_addr_o [30] $end
$var wire 1 z" ww_addr_o [29] $end
$var wire 1 {" ww_addr_o [28] $end
$var wire 1 |" ww_addr_o [27] $end
$var wire 1 }" ww_addr_o [26] $end
$var wire 1 ~" ww_addr_o [25] $end
$var wire 1 !# ww_addr_o [24] $end
$var wire 1 "# ww_addr_o [23] $end
$var wire 1 ## ww_addr_o [22] $end
$var wire 1 $# ww_addr_o [21] $end
$var wire 1 %# ww_addr_o [20] $end
$var wire 1 &# ww_addr_o [19] $end
$var wire 1 '# ww_addr_o [18] $end
$var wire 1 (# ww_addr_o [17] $end
$var wire 1 )# ww_addr_o [16] $end
$var wire 1 *# ww_addr_o [15] $end
$var wire 1 +# ww_addr_o [14] $end
$var wire 1 ,# ww_addr_o [13] $end
$var wire 1 -# ww_addr_o [12] $end
$var wire 1 .# ww_addr_o [11] $end
$var wire 1 /# ww_addr_o [10] $end
$var wire 1 0# ww_addr_o [9] $end
$var wire 1 1# ww_addr_o [8] $end
$var wire 1 2# ww_addr_o [7] $end
$var wire 1 3# ww_addr_o [6] $end
$var wire 1 4# ww_addr_o [5] $end
$var wire 1 5# ww_addr_o [4] $end
$var wire 1 6# ww_addr_o [3] $end
$var wire 1 7# ww_addr_o [2] $end
$var wire 1 8# ww_addr_o [1] $end
$var wire 1 9# ww_addr_o [0] $end
$var wire 1 :# ww_wr_en_o $end
$var wire 1 ;# ww_accel_select_o $end
$var wire 1 <# ww_data_out [31] $end
$var wire 1 =# ww_data_out [30] $end
$var wire 1 ># ww_data_out [29] $end
$var wire 1 ?# ww_data_out [28] $end
$var wire 1 @# ww_data_out [27] $end
$var wire 1 A# ww_data_out [26] $end
$var wire 1 B# ww_data_out [25] $end
$var wire 1 C# ww_data_out [24] $end
$var wire 1 D# ww_data_out [23] $end
$var wire 1 E# ww_data_out [22] $end
$var wire 1 F# ww_data_out [21] $end
$var wire 1 G# ww_data_out [20] $end
$var wire 1 H# ww_data_out [19] $end
$var wire 1 I# ww_data_out [18] $end
$var wire 1 J# ww_data_out [17] $end
$var wire 1 K# ww_data_out [16] $end
$var wire 1 L# ww_data_out [15] $end
$var wire 1 M# ww_data_out [14] $end
$var wire 1 N# ww_data_out [13] $end
$var wire 1 O# ww_data_out [12] $end
$var wire 1 P# ww_data_out [11] $end
$var wire 1 Q# ww_data_out [10] $end
$var wire 1 R# ww_data_out [9] $end
$var wire 1 S# ww_data_out [8] $end
$var wire 1 T# ww_data_out [7] $end
$var wire 1 U# ww_data_out [6] $end
$var wire 1 V# ww_data_out [5] $end
$var wire 1 W# ww_data_out [4] $end
$var wire 1 X# ww_data_out [3] $end
$var wire 1 Y# ww_data_out [2] $end
$var wire 1 Z# ww_data_out [1] $end
$var wire 1 [# ww_data_out [0] $end
$var wire 1 \# \rst_n~input_o\ $end
$var wire 1 ]# \clk~input_o\ $end
$var wire 1 ^# \data_in[0]~input_o\ $end
$var wire 1 _# \data_in[1]~input_o\ $end
$var wire 1 `# \data_in[2]~input_o\ $end
$var wire 1 a# \data_in[3]~input_o\ $end
$var wire 1 b# \data_in[4]~input_o\ $end
$var wire 1 c# \data_in[5]~input_o\ $end
$var wire 1 d# \data_in[6]~input_o\ $end
$var wire 1 e# \data_in[7]~input_o\ $end
$var wire 1 f# \data_in[8]~input_o\ $end
$var wire 1 g# \data_in[9]~input_o\ $end
$var wire 1 h# \data_in[10]~input_o\ $end
$var wire 1 i# \data_in[11]~input_o\ $end
$var wire 1 j# \data_in[12]~input_o\ $end
$var wire 1 k# \data_in[13]~input_o\ $end
$var wire 1 l# \data_in[14]~input_o\ $end
$var wire 1 m# \data_in[15]~input_o\ $end
$var wire 1 n# \data_in[16]~input_o\ $end
$var wire 1 o# \data_in[17]~input_o\ $end
$var wire 1 p# \data_in[18]~input_o\ $end
$var wire 1 q# \data_in[19]~input_o\ $end
$var wire 1 r# \data_in[20]~input_o\ $end
$var wire 1 s# \data_in[21]~input_o\ $end
$var wire 1 t# \data_in[22]~input_o\ $end
$var wire 1 u# \data_in[23]~input_o\ $end
$var wire 1 v# \data_in[24]~input_o\ $end
$var wire 1 w# \data_in[25]~input_o\ $end
$var wire 1 x# \data_in[26]~input_o\ $end
$var wire 1 y# \data_in[27]~input_o\ $end
$var wire 1 z# \data_in[28]~input_o\ $end
$var wire 1 {# \data_in[29]~input_o\ $end
$var wire 1 |# \data_in[30]~input_o\ $end
$var wire 1 }# \data_in[31]~input_o\ $end
$var wire 1 ~# \data_accel_in[0]~input_o\ $end
$var wire 1 !$ \data_accel_in[1]~input_o\ $end
$var wire 1 "$ \data_accel_in[2]~input_o\ $end
$var wire 1 #$ \data_accel_in[3]~input_o\ $end
$var wire 1 $$ \data_accel_in[4]~input_o\ $end
$var wire 1 %$ \data_accel_in[5]~input_o\ $end
$var wire 1 &$ \data_accel_in[6]~input_o\ $end
$var wire 1 '$ \data_accel_in[7]~input_o\ $end
$var wire 1 ($ \data_accel_in[8]~input_o\ $end
$var wire 1 )$ \data_accel_in[9]~input_o\ $end
$var wire 1 *$ \data_accel_in[10]~input_o\ $end
$var wire 1 +$ \data_accel_in[11]~input_o\ $end
$var wire 1 ,$ \data_accel_in[12]~input_o\ $end
$var wire 1 -$ \data_accel_in[13]~input_o\ $end
$var wire 1 .$ \data_accel_in[14]~input_o\ $end
$var wire 1 /$ \data_accel_in[15]~input_o\ $end
$var wire 1 0$ \data_accel_in[16]~input_o\ $end
$var wire 1 1$ \data_accel_in[17]~input_o\ $end
$var wire 1 2$ \data_accel_in[18]~input_o\ $end
$var wire 1 3$ \data_accel_in[19]~input_o\ $end
$var wire 1 4$ \data_accel_in[20]~input_o\ $end
$var wire 1 5$ \data_accel_in[21]~input_o\ $end
$var wire 1 6$ \data_accel_in[22]~input_o\ $end
$var wire 1 7$ \data_accel_in[23]~input_o\ $end
$var wire 1 8$ \data_accel_in[24]~input_o\ $end
$var wire 1 9$ \data_accel_in[25]~input_o\ $end
$var wire 1 :$ \data_accel_in[26]~input_o\ $end
$var wire 1 ;$ \data_accel_in[27]~input_o\ $end
$var wire 1 <$ \data_accel_in[28]~input_o\ $end
$var wire 1 =$ \data_accel_in[29]~input_o\ $end
$var wire 1 >$ \data_accel_in[30]~input_o\ $end
$var wire 1 ?$ \data_accel_in[31]~input_o\ $end
$var wire 1 @$ \addr_o[0]~output_o\ $end
$var wire 1 A$ \addr_o[1]~output_o\ $end
$var wire 1 B$ \addr_o[2]~output_o\ $end
$var wire 1 C$ \addr_o[3]~output_o\ $end
$var wire 1 D$ \addr_o[4]~output_o\ $end
$var wire 1 E$ \addr_o[5]~output_o\ $end
$var wire 1 F$ \addr_o[6]~output_o\ $end
$var wire 1 G$ \addr_o[7]~output_o\ $end
$var wire 1 H$ \addr_o[8]~output_o\ $end
$var wire 1 I$ \addr_o[9]~output_o\ $end
$var wire 1 J$ \addr_o[10]~output_o\ $end
$var wire 1 K$ \addr_o[11]~output_o\ $end
$var wire 1 L$ \addr_o[12]~output_o\ $end
$var wire 1 M$ \addr_o[13]~output_o\ $end
$var wire 1 N$ \addr_o[14]~output_o\ $end
$var wire 1 O$ \addr_o[15]~output_o\ $end
$var wire 1 P$ \addr_o[16]~output_o\ $end
$var wire 1 Q$ \addr_o[17]~output_o\ $end
$var wire 1 R$ \addr_o[18]~output_o\ $end
$var wire 1 S$ \addr_o[19]~output_o\ $end
$var wire 1 T$ \addr_o[20]~output_o\ $end
$var wire 1 U$ \addr_o[21]~output_o\ $end
$var wire 1 V$ \addr_o[22]~output_o\ $end
$var wire 1 W$ \addr_o[23]~output_o\ $end
$var wire 1 X$ \addr_o[24]~output_o\ $end
$var wire 1 Y$ \addr_o[25]~output_o\ $end
$var wire 1 Z$ \addr_o[26]~output_o\ $end
$var wire 1 [$ \addr_o[27]~output_o\ $end
$var wire 1 \$ \addr_o[28]~output_o\ $end
$var wire 1 ]$ \addr_o[29]~output_o\ $end
$var wire 1 ^$ \addr_o[30]~output_o\ $end
$var wire 1 _$ \addr_o[31]~output_o\ $end
$var wire 1 `$ \wr_en_o~output_o\ $end
$var wire 1 a$ \accel_select_o~output_o\ $end
$var wire 1 b$ \data_out[0]~output_o\ $end
$var wire 1 c$ \data_out[1]~output_o\ $end
$var wire 1 d$ \data_out[2]~output_o\ $end
$var wire 1 e$ \data_out[3]~output_o\ $end
$var wire 1 f$ \data_out[4]~output_o\ $end
$var wire 1 g$ \data_out[5]~output_o\ $end
$var wire 1 h$ \data_out[6]~output_o\ $end
$var wire 1 i$ \data_out[7]~output_o\ $end
$var wire 1 j$ \data_out[8]~output_o\ $end
$var wire 1 k$ \data_out[9]~output_o\ $end
$var wire 1 l$ \data_out[10]~output_o\ $end
$var wire 1 m$ \data_out[11]~output_o\ $end
$var wire 1 n$ \data_out[12]~output_o\ $end
$var wire 1 o$ \data_out[13]~output_o\ $end
$var wire 1 p$ \data_out[14]~output_o\ $end
$var wire 1 q$ \data_out[15]~output_o\ $end
$var wire 1 r$ \data_out[16]~output_o\ $end
$var wire 1 s$ \data_out[17]~output_o\ $end
$var wire 1 t$ \data_out[18]~output_o\ $end
$var wire 1 u$ \data_out[19]~output_o\ $end
$var wire 1 v$ \data_out[20]~output_o\ $end
$var wire 1 w$ \data_out[21]~output_o\ $end
$var wire 1 x$ \data_out[22]~output_o\ $end
$var wire 1 y$ \data_out[23]~output_o\ $end
$var wire 1 z$ \data_out[24]~output_o\ $end
$var wire 1 {$ \data_out[25]~output_o\ $end
$var wire 1 |$ \data_out[26]~output_o\ $end
$var wire 1 }$ \data_out[27]~output_o\ $end
$var wire 1 ~$ \data_out[28]~output_o\ $end
$var wire 1 !% \data_out[29]~output_o\ $end
$var wire 1 "% \data_out[30]~output_o\ $end
$var wire 1 #% \data_out[31]~output_o\ $end
$var wire 1 $% \addr_in[0]~input_o\ $end
$var wire 1 %% \addr_in[1]~input_o\ $end
$var wire 1 &% \addr_in[2]~input_o\ $end
$var wire 1 '% \addr_in[3]~input_o\ $end
$var wire 1 (% \addr_in[4]~input_o\ $end
$var wire 1 )% \addr_in[5]~input_o\ $end
$var wire 1 *% \addr_in[6]~input_o\ $end
$var wire 1 +% \addr_in[7]~input_o\ $end
$var wire 1 ,% \addr_in[8]~input_o\ $end
$var wire 1 -% \addr_in[9]~input_o\ $end
$var wire 1 .% \addr_in[10]~input_o\ $end
$var wire 1 /% \addr_in[11]~input_o\ $end
$var wire 1 0% \addr_in[12]~input_o\ $end
$var wire 1 1% \addr_in[13]~input_o\ $end
$var wire 1 2% \addr_in[14]~input_o\ $end
$var wire 1 3% \addr_in[15]~input_o\ $end
$var wire 1 4% \addr_in[16]~input_o\ $end
$var wire 1 5% \addr_in[17]~input_o\ $end
$var wire 1 6% \addr_in[18]~input_o\ $end
$var wire 1 7% \addr_in[19]~input_o\ $end
$var wire 1 8% \addr_in[20]~input_o\ $end
$var wire 1 9% \addr_in[21]~input_o\ $end
$var wire 1 :% \addr_in[22]~input_o\ $end
$var wire 1 ;% \addr_in[23]~input_o\ $end
$var wire 1 <% \addr_in[24]~input_o\ $end
$var wire 1 =% \addr_in[25]~input_o\ $end
$var wire 1 >% \addr_in[26]~input_o\ $end
$var wire 1 ?% \addr_in[27]~input_o\ $end
$var wire 1 @% \addr_in[28]~input_o\ $end
$var wire 1 A% \addr_in[29]~input_o\ $end
$var wire 1 B% \addr_in[30]~input_o\ $end
$var wire 1 C% \addr_in[31]~input_o\ $end
$var wire 1 D% \wr_en_in~input_o\ $end
$var wire 1 E% \select_in~input_o\ $end
$upscope $end
$upscope $end
$enddefinitions $end
#0
$dumpvars
x!
0b
1e!
xf!
xg!
xh!
0i!
1j!
xk!
1l!
1m!
1n!
1o!
1p!
1q!
1r!
0s!
x6"
x7"
x:#
x;#
1\#
0]#
x^#
x_#
x`#
xa#
xb#
xc#
xd#
xe#
xf#
xg#
xh#
xi#
xj#
xk#
xl#
xm#
xn#
xo#
xp#
xq#
xr#
xs#
xt#
xu#
xv#
xw#
xx#
xy#
xz#
x{#
x|#
x}#
x~#
x!$
x"$
x#$
x$$
x%$
x&$
x'$
x($
x)$
x*$
x+$
x,$
x-$
x.$
x/$
x0$
x1$
x2$
x3$
x4$
x5$
x6$
x7$
x8$
x9$
x:$
x;$
x<$
x=$
x>$
x?$
x@$
xA$
xB$
xC$
xD$
xE$
xF$
xG$
xH$
xI$
xJ$
xK$
xL$
xM$
xN$
xO$
xP$
xQ$
xR$
xS$
xT$
xU$
xV$
xW$
xX$
xY$
xZ$
x[$
x\$
x]$
x^$
x_$
x`$
xa$
0b$
0c$
0d$
0e$
0f$
0g$
0h$
0i$
0j$
0k$
0l$
0m$
0n$
0o$
0p$
0q$
0r$
0s$
0t$
0u$
0v$
0w$
0x$
0y$
0z$
0{$
0|$
0}$
0~$
0!%
0"%
0#%
x$%
x%%
x&%
x'%
x(%
x)%
x*%
x+%
x,%
x-%
x.%
x/%
x0%
x1%
x2%
x3%
x4%
x5%
x6%
x7%
x8%
x9%
x:%
x;%
x<%
x=%
x>%
x?%
x@%
xA%
xB%
xC%
xD%
xE%
x%!
x&!
x'!
x(!
x)!
x*!
x+!
x,!
x-!
x.!
x/!
x0!
x1!
x2!
x3!
x4!
x5!
x6!
x7!
x8!
x9!
x:!
x;!
x<!
x=!
x>!
x?!
x@!
xA!
xB!
xC!
xD!
0E!
0F!
0G!
0H!
0I!
0J!
0K!
0L!
0M!
0N!
0O!
0P!
0Q!
0R!
0S!
0T!
0U!
0V!
0W!
0X!
0Y!
0Z!
0[!
0\!
0]!
0^!
0_!
0`!
0a!
0b!
0c!
0d!
xt!
xu!
xv!
xw!
xx!
xy!
xz!
x{!
x|!
x}!
x~!
x!"
x""
x#"
x$"
x%"
x&"
x'"
x("
x)"
x*"
x+"
x,"
x-"
x."
x/"
x0"
x1"
x2"
x3"
x4"
x5"
x8"
x9"
x:"
x;"
x<"
x="
x>"
x?"
x@"
xA"
xB"
xC"
xD"
xE"
xF"
xG"
xH"
xI"
xJ"
xK"
xL"
xM"
xN"
xO"
xP"
xQ"
xR"
xS"
xT"
xU"
xV"
xW"
xX"
xY"
xZ"
x["
x\"
x]"
x^"
x_"
x`"
xa"
xb"
xc"
xd"
xe"
xf"
xg"
xh"
xi"
xj"
xk"
xl"
xm"
xn"
xo"
xp"
xq"
xr"
xs"
xt"
xu"
xv"
xw"
xx"
xy"
xz"
x{"
x|"
x}"
x~"
x!#
x"#
x##
x$#
x%#
x&#
x'#
x(#
x)#
x*#
x+#
x,#
x-#
x.#
x/#
x0#
x1#
x2#
x3#
x4#
x5#
x6#
x7#
x8#
x9#
0<#
0=#
0>#
0?#
0@#
0A#
0B#
0C#
0D#
0E#
0F#
0G#
0H#
0I#
0J#
0K#
0L#
0M#
0N#
0O#
0P#
0Q#
0R#
0S#
0T#
0U#
0V#
0W#
0X#
0Y#
0Z#
0[#
x"
x#
x$
x%
x&
x'
x(
x)
x*
x+
x,
x-
x.
x/
x0
x1
x2
x3
x4
x5
x6
x7
x8
x9
x:
x;
x<
x=
x>
x?
x@
xA
xB
xC
xD
xE
xF
xG
xH
xI
xJ
xK
xL
xM
xN
xO
xP
xQ
xR
xS
xT
xU
xV
xW
xX
xY
xZ
x[
x\
x]
x^
x_
x`
xa
xc
xd
xe
xf
xg
xh
xi
xj
xk
xl
xm
xn
xo
xp
xq
xr
xs
xt
xu
xv
xw
xx
xy
xz
x{
x|
x}
x~
x!!
x"!
x#!
x$!
$end
#2500
1b
1s!
1]#
#5000
0b
0s!
0]#
#7500
1b
1s!
1]#
#10000
0b
0e!
0s!
0r!
0\#
0]#
#12500
1b
1s!
1]#
#15000
0b
0s!
0]#
#17500
1b
1s!
1]#
#20000
0b
1e!
0s!
1r!
1\#
0]#
#22500
1b
1s!
1]#
#25000
0b
0s!
0]#
#27500
1b
1s!
1]#
#30000
0b
0s!
0]#
#32500
1b
1s!
1]#
#35000
0b
0s!
0]#
#37500
1b
1s!
1]#
#40000
0b
0s!
0]#
#42500
1b
1s!
1]#
#45000
0b
0s!
0]#
#47500
1b
1s!
1]#
#50000
0b
0s!
0]#
#52500
1b
1s!
1]#
#55000
0b
0s!
0]#
#57500
1b
1s!
1]#
#60000
0b
0s!
0]#
#62500
1b
1s!
1]#
#65000
0b
0s!
0]#
#67500
1b
1s!
1]#
#70000
0b
0s!
0]#
#72500
1b
1s!
1]#
#75000
0b
0s!
0]#
#77500
1b
1s!
1]#
#80000
0b
0s!
0]#
#82500
1b
1s!
1]#
#85000
0b
0s!
0]#
#87500
1b
1s!
1]#
#90000
0b
0s!
0]#
#92500
1b
1s!
1]#
#95000
0b
0s!
0]#
#97500
1b
1s!
1]#
#100000
0b
0s!
0]#
#102500
1b
1s!
1]#
#105000
0b
0s!
0]#
#107500
1b
1s!
1]#
#110000
0b
0s!
0]#
#112500
1b
1s!
1]#
#115000
0b
0s!
0]#
#117500
1b
1s!
1]#
#120000
0b
0s!
0]#
#122500
1b
1s!
1]#
#125000
0b
0s!
0]#
#127500
1b
1s!
1]#
#130000
0b
0s!
0]#
#132500
1b
1s!
1]#
#135000
0b
0s!
0]#
#137500
1b
1s!
1]#
#140000
0b
0s!
0]#
#142500
1b
1s!
1]#
#145000
0b
0s!
0]#
#147500
1b
1s!
1]#
#150000
0b
0s!
0]#
#152500
1b
1s!
1]#
#155000
0b
0s!
0]#
#157500
1b
1s!
1]#
#160000
0b
0s!
0]#
#162500
1b
1s!
1]#
#165000
0b
0s!
0]#
#167500
1b
1s!
1]#
#170000
0b
0s!
0]#
#172500
1b
1s!
1]#
#175000
0b
0s!
0]#
#177500
1b
1s!
1]#
#180000
0b
0s!
0]#
#182500
1b
1s!
1]#
#185000
0b
0s!
0]#
#187500
1b
1s!
1]#
#190000
0b
0s!
0]#
#192500
1b
1s!
1]#
#195000
0b
0s!
0]#
#197500
1b
1s!
1]#
#200000
0b
0s!
0]#
#202500
1b
1s!
1]#
#205000
0b
0s!
0]#
#207500
1b
1s!
1]#
#210000
0b
0s!
0]#
#212500
1b
1s!
1]#
#215000
0b
0s!
0]#
#217500
1b
1s!
1]#
#220000
0b
0s!
0]#
#222500
1b
1s!
1]#
#225000
0b
0s!
0]#
#227500
1b
1s!
1]#
#230000
0b
0s!
0]#
#232500
1b
1s!
1]#
#235000
0b
0s!
0]#
#237500
1b
1s!
1]#
#240000
0b
0s!
0]#
#242500
1b
1s!
1]#
#245000
0b
0s!
0]#
#247500
1b
1s!
1]#
#250000
0b
0s!
0]#
#252500
1b
1s!
1]#
#255000
0b
0s!
0]#
#257500
1b
1s!
1]#
